Tests_vscode_by_gtkwave/MyMips_all.vcd
$date
	Sun Jan 22 01:22:14 2023
$end
$version
	Icarus Verilog
$end
$timescale
	1ps
$end
$scope module MyMipsTest $end
$var reg 1 ! clock $end
$var integer 32 " range [31:0] $end
$scope module uut $end
$var wire 6 # OpcodeInputCU [5:0] $end
$var wire 1 ! clock $end
$var wire 32 $ instructionInputDecode [31:0] $end
$var wire 32 % instructionInputIFID [31:0] $end
$var wire 32 & nextPcInputIFID [31:0] $end
$var wire 1 ' zeroFlagEXMEM $end
$var wire 1 ( zeroExecute $end
$var wire 5 ) writeRegMEMWB [4:0] $end
$var wire 5 * writeRegEXMEM [4:0] $end
$var wire 32 + writeDataWB [31:0] $end
$var wire 32 , signExtendedOutputDecode [31:0] $end
$var wire 5 - rtIDEX [4:0] $end
$var wire 5 . rtDecode [4:0] $end
$var wire 1 / registerDestinationIDEX $end
$var wire 1 0 regWriteMEMWB $end
$var wire 1 1 regWriteIDEX $end
$var wire 1 2 regWriteEXMEM $end
$var wire 1 3 regWriteCU $end
$var wire 1 4 regDestinationCU $end
$var wire 32 5 readDataTwoOutputDecode [31:0] $end
$var wire 32 6 readDataTwoIDEX [31:0] $end
$var wire 32 7 readDataTwoEXMEM [31:0] $end
$var wire 32 8 readDataOneOutputDecode [31:0] $end
$var wire 32 9 readDataOneIDEX [31:0] $end
$var wire 32 : readDataMEMWB [31:0] $end
$var wire 32 ; readDataForDataMemory [31:0] $end
$var wire 5 < rdIDEX [4:0] $end
$var wire 5 = rdDecode [4:0] $end
$var wire 1 > pcSourceDataMemory $end
$var wire 6 ? opcodeOutputDecode [5:0] $end
$var wire 32 @ nextPcOutputIFID [31:0] $end
$var wire 32 A nextPCIDEX [31:0] $end
$var wire 32 B nextPCFetch [31:0] $end
$var wire 5 C muxOutputExecute [4:0] $end
$var wire 1 D memWriteIDEX $end
$var wire 1 E memWriteEXMEM $end
$var wire 1 F memWriteCU $end
$var wire 1 G memToRegMEMWB $end
$var wire 1 H memToRegIDEX $end
$var wire 1 I memToRegEXMEM $end
$var wire 1 J memToRegCU $end
$var wire 1 K memReadIDEX $end
$var wire 1 L memReadEXMEM $end
$var wire 1 M memReadCU $end
$var wire 32 N instructionOutputIFID [31:0] $end
$var wire 32 O instructionFetch [31:0] $end
$var wire 32 P immediateIDEX [31:0] $end
$var wire 1 Q hitForAll $end
$var wire 32 R branchTargetExecute [31:0] $end
$var wire 32 S branchTargetEXMEM [31:0] $end
$var wire 1 T branchIDEX $end
$var wire 1 U branchEXMEM $end
$var wire 1 V branchCU $end
$var wire 6 W FunctionIDEX [5:0] $end
$var wire 1 X ALUSourceIDEX $end
$var wire 1 Y ALUSourceCU $end
$var wire 32 Z ALUResultMEMWB [31:0] $end
$var wire 32 [ ALUResultExecute [31:0] $end
$var wire 32 \ ALUResultEXMEM [31:0] $end
$var wire 3 ] ALUOperationIDEX [2:0] $end
$var wire 3 ^ ALUOpcodeCU [2:0] $end
$var reg 1 _ branchIDEXEXMEMWait $end
$var reg 1 ` memReadIDEXEXMEMWait $end
$var reg 1 a memToRegIDEXEXMEMWait $end
$var reg 1 b memWriteIDEXEXMEMWait $end
$var reg 32 c readDataTwoExecuteEXMEMWait [31:0] $end
$var reg 1 d regWriteIDEXEXMEMWait $end
$scope module myMipsControlUnit $end
$var wire 6 e opCode [5:0] $end
$var reg 3 f aluOpcode [2:0] $end
$var reg 1 Y aluSource $end
$var reg 1 V branch $end
$var reg 1 M memRead $end
$var reg 1 J memToReg $end
$var reg 1 F memWrite $end
$var reg 1 4 regDestination $end
$var reg 1 3 regWrite $end
$upscope $end
$scope module myMipsDataMemory $end
$var wire 1 ! clock $end
$var wire 32 g writeData [31:0] $end
$var wire 1 E memWrite $end
$var wire 1 L memRead $end
$var wire 32 h address [31:0] $end
$var reg 32 i readData [31:0] $end
$upscope $end
$scope module myMipsDecode $end
$var wire 1 ! clock $end
$var wire 32 j instruction [31:0] $end
$var wire 5 k writeReg [4:0] $end
$var wire 32 l writeData [31:0] $end
$var wire 1 0 regWrite $end
$var wire 32 m _signExtendValue [31:0] $end
$var wire 32 n _readDataTwo [31:0] $end
$var wire 32 o _readDataOne [31:0] $end
$var reg 16 p IMMValue [15:0] $end
$var reg 5 q RD [4:0] $end
$var reg 5 r RS [4:0] $end
$var reg 5 s RT [4:0] $end
$var reg 6 t opCode [5:0] $end
$var reg 5 u rd [4:0] $end
$var reg 32 v readDataNumberOne [31:0] $end
$var reg 32 w readDataNumberTwo [31:0] $end
$var reg 5 x rt [4:0] $end
$var reg 32 y signExtendedImmediate [31:0] $end
$scope module registerFile $end
$var wire 1 ! clock $end
$var wire 32 z readDataNumberOne [31:0] $end
$var wire 32 { readDataNumberTwo [31:0] $end
$var wire 5 | readRegisterNumberOne [4:0] $end
$var wire 5 } readRegisterNumberTwo [4:0] $end
$var wire 5 ~ writeReg [4:0] $end
$var wire 32 !" writeData [31:0] $end
$var wire 1 0 regWrite $end
$var integer 32 "" i [31:0] $end
$upscope $end
$scope module signExtended $end
$var wire 16 #" originValue [15:0] $end
$var wire 32 $" signExtendedValue [31:0] $end
$upscope $end
$upscope $end
$scope module myMipsEXMemoryRegister $end
$var wire 1 _ branch $end
$var wire 32 %" branchTarget [31:0] $end
$var wire 1 ! clock $end
$var wire 1 &" hitOut $end
$var wire 1 ` memRead $end
$var wire 1 a memToReg $end
$var wire 1 b memWrite $end
$var wire 32 '" readDataTwo [31:0] $end
$var wire 1 d regWrite $end
$var wire 5 (" writeReg [4:0] $end
$var wire 1 ( zeroFlag $end
$var wire 1 Q hit $end
$var wire 32 )" ALUResult [31:0] $end
$var reg 32 *" ALUResultOut [31:0] $end
$var reg 1 U branchOut $end
$var reg 32 +" branchTargetOut [31:0] $end
$var reg 1 L memReadOut $end
$var reg 1 I memToRegOut $end
$var reg 1 E memWriteOut $end
$var reg 32 ," readDataTwoOut [31:0] $end
$var reg 1 2 regWriteOut $end
$var reg 5 -" writeRegOut [4:0] $end
$var reg 1 ' zeroFlagOut $end
$upscope $end
$scope module myMipsExecute $end
$var wire 5 ." ShiftAmount [4:0] $end
$var wire 1 ! clock $end
$var wire 1 ( zero $end
$var wire 32 /" immediate [31:0] $end
$var wire 6 0" Function [5:0] $end
$var wire 1 X ALUSource $end
$var wire 32 1" ALUResult [31:0] $end
$var wire 32 2" ALUReadDataTwo [31:0] $end
$var wire 32 3" ALUReadDataOne [31:0] $end
$var wire 3 4" ALUOperation [2:0] $end
$var wire 32 5" ALUInputDataTwo [31:0] $end
$var wire 4 6" ALUControl [3:0] $end
$scope module ALUCU $end
$var wire 6 7" Function [5:0] $end
$var wire 3 8" ALUOperation [2:0] $end
$var reg 4 9" ALUControl [3:0] $end
$upscope $end
$scope module ALUInstance $end
$var wire 4 :" ALUControl [3:0] $end
$var wire 5 ;" shiftAmount [4:0] $end
$var wire 32 <" inputTwo [31:0] $end
$var wire 32 =" inputOne [31:0] $end
$var reg 32 >" result [31:0] $end
$var reg 1 ( zero $end
$upscope $end
$scope module mux $end
$var wire 1 X select $end
$var wire 32 ?" muxResult [31:0] $end
$var wire 32 @" inputTwo [31:0] $end
$var wire 32 A" inputOne [31:0] $end
$upscope $end
$upscope $end
$scope module myMipsFetch $end
$var wire 32 B" branchTarget [31:0] $end
$var wire 1 ! clock $end
$var wire 1 > pcSource $end
$var wire 32 C" nextPc [31:0] $end
$var wire 32 D" nextAddress [31:0] $end
$var wire 32 E" instruction [31:0] $end
$var wire 1 Q hit $end
$var wire 128 F" data [127:0] $end
$var wire 32 G" address [31:0] $end
$scope module cache $end
$var wire 1 ! clock $end
$var wire 128 H" dataLine [127:0] $end
$var wire 32 I" address [31:0] $end
$var reg 1 Q hit $end
$var reg 32 J" instruction [31:0] $end
$upscope $end
$scope module instructionMemory $end
$var wire 1 ! clock $end
$var wire 32 K" instructionAddress [31:0] $end
$var reg 28 L" addressValue [27:0] $end
$var reg 3 M" counter [2:0] $end
$var reg 32 N" index [31:0] $end
$var reg 128 O" outputInstructionMemory [127:0] $end
$upscope $end
$scope module mux $end
$var wire 32 P" branchTarget [31:0] $end
$var wire 32 Q" pc [31:0] $end
$var wire 1 > pcSource $end
$var reg 32 R" address [31:0] $end
$upscope $end
$scope module pc $end
$var wire 1 ! clock $end
$var wire 1 Q hit $end
$var wire 32 S" nextAddress [31:0] $end
$var reg 32 T" address [31:0] $end
$upscope $end
$upscope $end
$scope module myMipsIDEX $end
$var wire 3 U" ALUOperation [2:0] $end
$var wire 1 Y ALUSource $end
$var wire 6 V" Function [5:0] $end
$var wire 5 W" RD [4:0] $end
$var wire 5 X" RT [4:0] $end
$var wire 1 V branch $end
$var wire 1 ! clock $end
$var wire 1 Q hit $end
$var wire 1 Y" hitOut $end
$var wire 32 Z" immediate [31:0] $end
$var wire 1 M memRead $end
$var wire 1 J memToReg $end
$var wire 1 F memWrite $end
$var wire 32 [" readDataOne [31:0] $end
$var wire 32 \" readDataTwo [31:0] $end
$var wire 1 3 regWrite $end
$var wire 1 4 registerDestination $end
$var wire 32 ]" nextPC [31:0] $end
$var reg 3 ^" ALUOperationOut [2:0] $end
$var reg 1 X ALUSourceOut $end
$var reg 6 _" FunctionOut [5:0] $end
$var reg 5 `" RDOut [4:0] $end
$var reg 5 a" RTOut [4:0] $end
$var reg 1 T branchOut $end
$var reg 32 b" immediateOut [31:0] $end
$var reg 1 K memReadOut $end
$var reg 1 H memToRegOut $end
$var reg 1 D memWriteOut $end
$var reg 32 c" nextPCOut [31:0] $end
$var reg 32 d" readDataOneOut [31:0] $end
$var reg 32 e" readDataTwoOut [31:0] $end
$var reg 1 1 regWriteOut $end
$var reg 1 / registerDestinationOut $end
$upscope $end
$scope module myMipsIFID $end
$var wire 1 ! clock $end
$var wire 1 Q hitInput $end
$var wire 1 f" hitOutput $end
$var wire 32 g" instructionInput [31:0] $end
$var wire 32 h" nextPcInput [31:0] $end
$var reg 32 i" instructionOutput [31:0] $end
$var reg 32 j" nextPcOutput [31:0] $end
$upscope $end
$scope module myMipsMemoryWriteBackRegister $end
$var wire 32 k" ALUResult [31:0] $end
$var wire 1 ! clock $end
$var wire 1 Q hit $end
$var wire 1 l" hitOut $end
$var wire 1 I memToReg $end
$var wire 32 m" readData [31:0] $end
$var wire 1 2 regWrite $end
$var wire 5 n" writeReg [4:0] $end
$var reg 32 o" ALUResultOut [31:0] $end
$var reg 1 G memToRegOut $end
$var reg 32 p" readDataOut [31:0] $end
$var reg 1 0 regWriteOut $end
$var reg 5 q" writeRegOut [4:0] $end
$upscope $end
$scope module myMipsWriteBack $end
$var wire 32 r" ALUResult [31:0] $end
$var wire 1 G memToReg $end
$var wire 32 s" readData [31:0] $end
$var reg 32 t" writeData [31:0] $end
$upscope $end
$upscope $end
$upscope $end
$enddefinitions $end
#0
$dumpvars
b0 t"
b0 s"
b0 r"
b0 q"
b0 p"
b0 o"
b0 n"
b0 m"
0l"
b0 k"
b0 j"
b0 i"
b100 h"
bx g"
0f"
b0 e"
b0 d"
bx c"
b0 b"
bx a"
bx `"
bx _"
bx ^"
b0 ]"
b0 \"
b0 ["
b0 Z"
0Y"
b0 X"
b0 W"
b0 V"
b0 U"
b0 T"
b100 S"
b100 R"
b100 Q"
b0 P"
bx O"
bx N"
b0 M"
bx L"
b0 K"
bx J"
b0 I"
bx H"
b0 G"
bx F"
bx E"
b100 D"
b100 C"
b0 B"
b0 A"
b0 @"
b0 ?"
bx >"
b0 ="
b0 <"
b1 ;"
bx :"
bx 9"
bx 8"
bx 7"
bx 6"
b0 5"
bx 4"
b0 3"
b0 2"
bx 1"
bx 0"
b0 /"
b1 ."
b0 -"
b0 ,"
b0 +"
b0 *"
bx )"
bx ("
bx '"
0&"
bx %"
bx $"
bx #"
b100000 ""
b0 !"
b0 ~
bx }
bx |
bx {
bx z
b0 y
b0 x
b0 w
b0 v
b0 u
b0 t
bx s
bx r
bx q
bx p
bx o
bx n
bx m
b0 l
b0 k
b0 j
b0 i
b0 h
b0 g
b0 f
b0 e
xd
bx c
xb
xa
x`
x_
b0 ^
bx ]
b0 \
bx [
b0 Z
0Y
xX
bx W
0V
0U
xT
b0 S
bx R
0Q
b0 P
bx O
b0 N
0M
0L
xK
0J
0I
xH
0G
0F
0E
xD
bx C
b100 B
bx A
b0 @
b0 ?
0>
b0 =
bx <
b0 ;
b0 :
b0 9
b0 8
b0 7
b0 6
b0 5
14
13
02
x1
00
x/
b0 .
bx -
b0 ,
b0 +
b0 *
b0 )
x(
0'
b100 &
bx %
b0 $
b0 #
b0 "
0!
$end
#50000
bx V"
b0 L"
b1 M"
b0 m
b0 $"
b0 p
b0 #"
b0 q
b0 n
b0 {
b0 s
b0 }
b0 o
b0 z
b0 r
b0 |
bx =
bx u
bx W"
bx .
bx x
bx X"
bx ,
bx y
bx Z"
bx 5
bx w
bx \"
bx 8
bx v
bx ["
b0 c
b0 '"
b1 "
1!
#100000
0!
#150000
b0 V"
b10 "
b0 =
b0 u
b0 W"
b0 .
b0 x
b0 X"
b0 ,
b0 y
b0 Z"
b0 5
b0 w
b0 \"
b0 8
b0 v
b0 ["
b10 M"
1!
#200000
0!
#250000
b11 M"
b11 "
1!
#300000
0!
#350000
b100 "
b100 M"
1!
#400000
0!
#450000
b0 M"
b10000110000100000000000000000001010011000100000000000010000000100001001001110000000001000000001011011000101000000000011 F"
b10000110000100000000000000000001010011000100000000000010000000100001001001110000000001000000001011011000101000000000011 H"
b10000110000100000000000000000001010011000100000000000010000000100001001001110000000001000000001011011000101000000000011 O"
b0 N"
b101 "
1!
#500000
0!
#550000
b110 "
b1011011000101000000000011 %
b1011011000101000000000011 g"
b1011011000101000000000011 O
b1011011000101000000000011 E"
b1011011000101000000000011 J"
1Y"
1f"
1l"
1&"
1Q
b1 M"
1!
#600000
xI
x2
xU
xE
xL
bx *
bx -"
bx n"
bx \
bx h
bx *"
bx k"
x'
bx S
bx +"
bx B"
bx P"
1(
b0 [
b0 )"
b0 1"
b0 >"
b1000 D"
b1000 R"
b1000 S"
b0 6"
b0 9"
b0 :"
b0 C
b0 ("
b1000 &
b1000 h"
b1000 B
b1000 C"
b1000 Q"
b100 G"
b100 I"
b100 K"
b100 T"
b100 @
b100 ]"
b100 j"
b1011011000101000000000011 $
b1011011000101000000000011 j
b1011011000101000000000011 N
b1011011000101000000000011 i"
b0 R
b0 %"
b0 A
b0 c"
b0 W
b0 0"
b0 7"
b0 _"
b0 <
b0 `"
b0 -
b0 a"
b0 ]
b0 4"
b0 8"
b0 ^"
0T
0D
0K
11
0H
0X
1/
0!
#650000
b10 M"
b1000010010011100000000010 %
b1000010010011100000000010 g"
b1000010010011100000000010 O
b1000010010011100000000010 E"
b1000010010011100000000010 J"
b101000000000011 m
b101000000000011 $"
b101000000000011 p
b101000000000011 #"
b1010 q
b1100 n
b1100 {
b1100 s
b1100 }
b1011 o
b1011 z
b1011 r
b1011 |
0a
1d
0_
0b
0`
b111 "
1!
#700000
0I
12
0U
0E
0L
b0 *
b0 -"
b0 n"
b0 \
b0 h
b0 *"
b0 k"
1'
b1100 S
b1100 +"
b1100 B"
b1100 P"
bx +
bx l
bx !"
bx t"
b1100 D"
b1100 R"
b1100 S"
xG
x0
bx )
bx k
bx ~
bx q"
bx Z
bx o"
bx r"
b1100 R
b1100 %"
b1100 A
b1100 c"
b1100 @
b1100 ]"
b1100 j"
b1000010010011100000000010 $
b1000010010011100000000010 j
b1000010010011100000000010 N
b1000010010011100000000010 i"
b1100 &
b1100 h"
b1100 B
b1100 C"
b1100 Q"
b1000 G"
b1000 I"
b1000 K"
b1000 T"
0!
#750000
b10 V"
b1000 "
b111 =
b111 u
b111 W"
b1001 .
b1001 x
b1001 X"
b11100000000010 ,
b11100000000010 y
b11100000000010 Z"
b1001 5
b1001 w
b1001 \"
b1000 8
b1000 v
b1000 ["
b11100000000010 m
b11100000000010 $"
b11100000000010 p
b11100000000010 #"
b111 q
b1001 n
b1001 {
b1001 s
b1001 }
b1000 o
b1000 z
b1000 r
b1000 |
b101001100010000000000001 %
b101001100010000000000001 g"
b101001100010000000000001 O
b101001100010000000000001 E"
b101001100010000000000001 J"
b11 M"
1!
#800000
b10000 D"
b10000 R"
b10000 S"
b101 6"
b101 9"
b101 :"
b111 C
b111 ("
b1110000000010100 R
b1110000000010100 %"
b1001 5"
b1001 <"
b1001 ?"
0(
b1000 [
b1000 )"
b1000 1"
b1000 >"
b0 +
b0 l
b0 !"
b0 t"
b10000 &
b10000 h"
b10000 B
b10000 C"
b10000 Q"
b1100 G"
b1100 I"
b1100 K"
b1100 T"
b101001100010000000000001 $
b101001100010000000000001 j
b101001100010000000000001 N
b101001100010000000000001 i"
b10 W
b10 0"
b10 7"
b10 _"
b111 <
b111 `"
b1001 -
b1001 a"
b11100000000010 P
b11100000000010 /"
b11100000000010 @"
b11100000000010 b"
b1001 6
b1001 2"
b1001 A"
b1001 e"
b1000 9
b1000 3"
b1000 ="
b1000 d"
0G
10
b0 )
b0 k
b0 ~
b0 q"
b0 Z
b0 o"
b0 r"
0!
#850000
b100 M"
b10000110000100000000000 %
b10000110000100000000000 g"
b10000110000100000000000 O
b10000110000100000000000 E"
b10000110000100000000000 J"
b10000000000001 m
b10000000000001 $"
b10000000000001 p
b10000000000001 #"
b100 q
b110 n
b110 {
b110 s
b110 }
b101 o
b101 z
b101 r
b101 |
b1001 "
1!
#900000
b111 *
b111 -"
b111 n"
b1000 \
b1000 h
b1000 *"
b1000 k"
0'
b1110000000011100 S
b1110000000011100 +"
b1110000000011100 B"
b1110000000011100 P"
b10100 D"
b10100 R"
b10100 S"
b1110000000011100 R
b1110000000011100 %"
b10100 A
b10100 c"
b10100 @
b10100 ]"
b10100 j"
b10000110000100000000000 $
b10000110000100000000000 j
b10000110000100000000000 N
b10000110000100000000000 i"
b10100 &
b10100 h"
b10100 B
b10100 C"
b10100 Q"
b10000 G"
b10000 I"
b10000 K"
b10000 T"
0!
#950000
b0 V"
b1010 "
b1 =
b1 u
b1 W"
b11 .
b11 x
b11 X"
b100000000000 ,
b100000000000 y
b100000000000 Z"
b11 5
b11 w
b11 \"
b10 8
b10 v
b10 ["
b100000000000 m
b100000000000 $"
b100000000000 p
b100000000000 #"
b1 q
b11 n
b11 {
b11 s
b11 }
b10 o
b10 z
b10 r
b10 |
0Y"
0f"
0l"
0&"
0Q
b1 M"
b1 L"
1!
#1000000
0!
#1050000
b10 M"
b1011 "
1!
#1100000
0!
#1150000
b1100 "
b11 M"
1!
#1200000
0!
#1250000
b100 M"
b1101 "
1!
#1300000
0!
#1350000
b1110 "
b0 M"
b1110011110110100000000100000000100010000010000000000001110001011001110010000000000000010000011110101101000000000000010101 F"
b1110011110110100000000100000000100010000010000000000001110001011001110010000000000000010000011110101101000000000000010101 H"
b1110011110110100000000100000000100010000010000000000001110001011001110010000000000000010000011110101101000000000000010101 O"
b10000 N"
1!
#1400000
0!
#1450000
b1 M"
b11110101101000000000000010101 %
b11110101101000000000000010101 g"
b11110101101000000000000010101 O
b11110101101000000000000010101 E"
b11110101101000000000000010101 J"
1Y"
1f"
1l"
1&"
1Q
b1111 "
1!
#1500000
b1110000000100000 S
b1110000000100000 +"
b1110000000100000 B"
b1110000000100000 P"
b1000 +
b1000 l
b1000 !"
b1000 t"
b0 6"
b0 9"
b0 :"
b1 C
b1 ("
b11 5"
b11 <"
b11 ?"
0(
b101 [
b101 )"
b101 1"
b101 >"
b11000 D"
b11000 R"
b11000 S"
b111 )
b111 k
b111 ~
b111 q"
b1000 Z
b1000 o"
b1000 r"
b10000000011000 R
b10000000011000 %"
b11000 A
b11000 c"
b0 W
b0 0"
b0 7"
b0 _"
b1 <
b1 `"
b11 -
b11 a"
b100000000000 P
b100000000000 /"
b100000000000 @"
b100000000000 b"
b11 6
b11 2"
b11 A"
b11 e"
b10 9
b10 3"
b10 ="
b10 d"
b11000 @
b11000 ]"
b11000 j"
b11110101101000000000000010101 $
b11110101101000000000000010101 j
b11110101101000000000000010101 N
b11110101101000000000000010101 i"
b11000 &
b11000 h"
b11000 B
b11000 C"
b11000 Q"
b10100 G"
b10100 I"
b10100 K"
b10100 T"
0!
#1550000
b10101 V"
b11 ^
b11 f
b11 U"
1Y
13
04
b10000 "
b0 =
b0 u
b0 W"
b10100 .
b10100 x
b10100 X"
b10101 ,
b10101 y
b10101 Z"
b10100 5
b10100 w
b10100 \"
b10101 8
b10101 v
b10101 ["
b111 #
b111 e
b111 ?
b111 t
b10101 m
b10101 $"
b10101 p
b10101 #"
b0 q
b10100 n
b10100 {
b10100 s
b10100 }
b10101 o
b10101 z
b10101 r
b10101 |
b10110011100100000000000000100 %
b10110011100100000000000000100 g"
b10110011100100000000000000100 O
b10110011100100000000000000100 E"
b10110011100100000000000000100 J"
b10 M"
1!
#1600000
b1 *
b1 -"
b1 n"
b101 \
b101 h
b101 *"
b101 k"
b10000000011000 S
b10000000011000 +"
b10000000011000 B"
b10000000011000 P"
b11100 D"
b11100 R"
b11100 S"
b10100 C
b10100 ("
b1101100 R
b1101100 %"
b10101 5"
b10101 <"
b10101 ?"
b101010 [
b101010 )"
b101010 1"
b101010 >"
b11100 &
b11100 h"
b11100 B
b11100 C"
b11100 Q"
b11000 G"
b11000 I"
b11000 K"
b11000 T"
b10110011100100000000000000100 $
b10110011100100000000000000100 j
b10110011100100000000000000100 N
b10110011100100000000000000100 i"
b10101 W
b10101 0"
b10101 7"
b10101 _"
b0 <
b0 `"
b10100 -
b10100 a"
b11 ]
b11 4"
b11 8"
b11 ^"
1X
0/
b10101 P
b10101 /"
b10101 @"
b10101 b"
b10100 6
b10100 2"
b10100 A"
b10100 e"
b10101 9
b10101 3"
b10101 ="
b10101 d"
0!
#1650000
1F
b11 ^
b11 f
b11 U"
03
1Y
b11 M"
b10001000001000000000000111 %
b10001000001000000000000111 g"
b10001000001000000000000111 O
b10001000001000000000000111 E"
b10001000001000000000000111 J"
b100 m
b100 $"
b100 p
b100 #"
b10010 n
b10010 {
b10010 s
b10010 }
b10011 o
b10011 z
b10011 r
b10011 |
b101 #
b101 e
b101 ?
b101 t
b10001 "
1!
#1700000
b10100 *
b10100 -"
b10100 n"
b101010 \
b101010 h
b101010 *"
b101010 k"
b1110100 S
b1110100 +"
b1110100 B"
b1110100 P"
b101 +
b101 l
b101 !"
b101 t"
b100000 D"
b100000 R"
b100000 S"
b1 )
b1 k
b1 ~
b1 q"
b101 Z
b101 o"
b101 r"
b1110100 R
b1110100 %"
b100000 A
b100000 c"
1D
01
b100000 @
b100000 ]"
b100000 j"
b10001000001000000000000111 $
b10001000001000000000000111 j
b10001000001000000000000111 N
b10001000001000000000000111 i"
b100000 &
b100000 h"
b100000 B
b100000 C"
b100000 Q"
b11100 G"
b11100 I"
b11100 K"
b11100 T"
0!
#1750000
b111 V"
13
14
b0 ^
b0 f
b0 U"
0F
0Y
b10010 "
0d
1b
b10000 =
b10000 u
b10000 W"
b0 .
b0 x
b0 X"
b1000000000000111 ,
b1000000000000111 y
b1000000000000111 Z"
b0 5
b0 w
b0 \"
b10001 8
b10001 v
b10001 ["
b0 #
b0 e
b0 ?
b0 t
b11111111111111111000000000000111 m
b11111111111111111000000000000111 $"
b1000000000000111 p
b1000000000000111 #"
b10000 q
b0 n
b0 {
b0 s
b0 }
b10001 o
b10001 z
b10001 r
b10001 |
b1110011110110100000000100 %
b1110011110110100000000100 g"
b1110011110110100000000100 O
b1110011110110100000000100 E"
b1110011110110100000000100 J"
b100 M"
1!
#1800000
02
1E
b100100 D"
b100100 R"
b100100 S"
b10 6"
b10 9"
b10 :"
b10000 C
b10000 ("
b0 5"
b0 <"
b0 ?"
b100000000000111100 R
b100000000000111100 %"
b11111111111111111111111111101110 [
b11111111111111111111111111101110 )"
b11111111111111111111111111101110 1"
b11111111111111111111111111101110 >"
b101010 +
b101010 l
b101010 !"
b101010 t"
b100100 &
b100100 h"
b100100 B
b100100 C"
b100100 Q"
b100000 G"
b100000 I"
b100000 K"
b100000 T"
b1110011110110100000000100 $
b1110011110110100000000100 j
b1110011110110100000000100 N
b1110011110110100000000100 i"
b111 W
b111 0"
b111 7"
b111 _"
b10000 <
b10000 `"
b0 -
b0 a"
b0 ]
b0 4"
b0 8"
b0 ^"
0D
11
0X
1/
b1000000000000111 P
b1000000000000111 /"
b1000000000000111 @"
b1000000000000111 b"
b0 6
b0 2"
b0 A"
b0 e"
b10001 9
b10001 3"
b10001 ="
b10001 d"
b10100 )
b10100 k
b10100 ~
b10100 q"
b101010 Z
b101010 o"
b101010 r"
0!
#1850000
b1 M"
b10 L"
0Y"
0f"
0l"
0&"
0Q
b110100000000100 m
b110100000000100 $"
b110100000000100 p
b110100000000100 #"
b1101 q
b1111 n
b1111 {
b1111 s
b1111 }
b1110 o
b1110 z
b1110 r
b1110 |
b11111111111111111000000000000111 ,
b11111111111111111000000000000111 y
b11111111111111111000000000000111 Z"
1d
0b
b10011 "
1!
#1900000
0!
#1950000
b100 V"
b10100 "
b1101 =
b1101 u
b1101 W"
b1111 .
b1111 x
b1111 X"
b110100000000100 ,
b110100000000100 y
b110100000000100 Z"
b1111 5
b1111 w
b1111 \"
b1110 8
b1110 v
b1110 ["
b10 M"
1!
#2000000
0!
#2050000
b11 M"
b10101 "
1!
#2100000
0!
#2150000
b10110 "
b100 M"
1!
#2200000
0!
#2250000
b0 M"
b110111101100000000000010111000000110010000011000000110001010000001101100000110100001100011000010010011100100000000000000100 F"
b110111101100000000000010111000000110010000011000000110001010000001101100000110100001100011000010010011100100000000000000100 H"
b110111101100000000000010111000000110010000011000000110001010000001101100000110100001100011000010010011100100000000000000100 O"
b100000 N"
b10111 "
1!
#2300000
0!
#2350000
b11000 "
b10010011100100000000000000100 %
b10010011100100000000000000100 g"
b10010011100100000000000000100 O
b10010011100100000000000000100 E"
b10010011100100000000000000100 J"
1Y"
1f"
1l"
1&"
1Q
b1 M"
1!
#2400000
12
0E
b10000 *
b10000 -"
b10000 n"
b11111111111111111111111111101110 \
b11111111111111111111111111101110 h
b11111111111111111111111111101110 *"
b11111111111111111111111111101110 k"
b100000000000111100 S
b100000000000111100 +"
b100000000000111100 B"
b100000000000111100 P"
b101000 D"
b101000 R"
b101000 S"
b111 6"
b111 9"
b111 :"
b1101 C
b1101 ("
b11010000000110000 R
b11010000000110000 %"
b1111 5"
b1111 <"
b1111 ?"
b1 [
b1 )"
b1 1"
b1 >"
b101000 &
b101000 h"
b101000 B
b101000 C"
b101000 Q"
b100100 G"
b100100 I"
b100100 K"
b100100 T"
b100100 @
b100100 ]"
b100100 j"
b10010011100100000000000000100 $
b10010011100100000000000000100 j
b10010011100100000000000000100 N
b10010011100100000000000000100 i"
b100 W
b100 0"
b100 7"
b100 _"
b1101 <
b1101 `"
b1111 -
b1111 a"
b110100000000100 P
b110100000000100 /"
b110100000000100 @"
b110100000000100 b"
b1111 6
b1111 2"
b1111 A"
b1111 e"
b1110 9
b1110 3"
b1110 ="
b1110 d"
00
0!
#2450000
b11 ^
b11 f
b11 U"
1M
1J
1Y
13
04
b10 M"
b11011000001101000011000110 %
b11011000001101000011000110 g"
b11011000001101000011000110 O
b11011000001101000011000110 E"
b11011000001101000011000110 J"
b100 m
b100 $"
b100 p
b100 #"
b0 q
b10010 n
b10010 {
b10010 s
b10010 }
b10011 o
b10011 z
b10011 r
b10011 |
b100 #
b100 e
b100 ?
b100 t
b11001 "
1!
#2500000
b1101 *
b1101 -"
b1101 n"
b1 \
b1 h
b1 *"
b1 k"
b11010000000111100 S
b11010000000111100 +"
b11010000000111100 B"
b11010000000111100 P"
b110100000010010 [
b110100000010010 )"
b110100000010010 1"
b110100000010010 >"
b11111111111111111111111111101110 +
b11111111111111111111111111101110 l
b11111111111111111111111111101110 !"
b11111111111111111111111111101110 t"
b0 6"
b0 9"
b0 :"
b110100000000100 5"
b110100000000100 <"
b110100000000100 ?"
b1111 C
b1111 ("
b101100 D"
b101100 R"
b101100 S"
10
b10000 )
b10000 k
b10000 ~
b10000 q"
b11111111111111111111111111101110 Z
b11111111111111111111111111101110 o"
b11111111111111111111111111101110 r"
b11010000000111100 R
b11010000000111100 %"
b101100 A
b101100 c"
b11 ]
b11 4"
b11 8"
b11 ^"
1K
1H
1X
0/
b101100 @
b101100 ]"
b101100 j"
b11011000001101000011000110 $
b11011000001101000011000110 j
b11011000001101000011000110 N
b11011000001101000011000110 i"
b101100 &
b101100 h"
b101100 B
b101100 C"
b101100 Q"
b101000 G"
b101000 I"
b101000 K"
b101000 T"
0!
#2550000
b110 V"
14
b0 ^
b0 f
b0 U"
0M
13
0J
0Y
b11010 "
1a
1`
b11010 =
b11010 u
b11010 W"
b0 .
b0 x
b0 X"
b1101000011000110 ,
b1101000011000110 y
b1101000011000110 Z"
b0 5
b0 w
b0 \"
b11011 8
b11011 v
b11011 ["
b0 #
b0 e
b0 ?
b0 t
b11111111111111111101000011000110 m
b11111111111111111101000011000110 $"
b1101000011000110 p
b1101000011000110 #"
b11010 q
b0 n
b0 {
b0 s
b0 }
b11011 o
b11011 z
b11011 r
b11011 |
b11001000001100000011000101 %
b11001000001100000011000101 g"
b11001000001100000011000101 O
b11001000001100000011000101 E"
b11001000001100000011000101 J"
b11 M"
1!
